{
  "page": 1,
  "total_results": 5231,
  "total_pages": 262,
  "results": [
    {
      "poster_path": "/9O7gLzmreU0nGkIB6K3BsJbzvNv.jpg",
      "adult": false,
      "overview": "Framed in the 1940s for the double murder of his wife and her lover, upstanding banker Andy Dufresne begins a new life at the Shawshank prison, where he puts his accounting skills to work for an amoral warden. During his long stretch in prison, Dufresne comes to be admired by the other inmates -- including an older prisoner named Red -- for his integrity and unquenchable sense of hope.",
      "release_date": "1994-09-10",
      "genre_ids": [
        18,
        80
      ],
      "id": 278,
      "original_title": "The Shawshank Redemption",
      "original_language": "en",
      "title": "The Shawshank Redemption",
      "backdrop_path": "/xBKGJQsAIeweesB79KC89FpBrVr.jpg",
      "popularity": 5.131847,
      "vote_count": 5249,
      "video": false,
      "vote_average": 8.32
    },
    {
      "poster_path": "/lIv1QinFqz4dlp5U4lQ6HaiskOZ.jpg",
      "adult": false,
      "overview": "Under the direction of a ruthless instructor, a talented young drummer begins to pursue perfection at any cost, even his humanity.",
      "release_date": "2014-10-10",
      "genre_ids": [
        18,
        10402
      ],
      "id": 244786,
      "original_title": "Whiplash",
      "original_language": "en",
      "title": "Whiplash",
      "backdrop_path": "/6bbZ6XyvgfjhQwbplnUh1LSj1ky.jpg",
      "popularity": 7.133469,
      "vote_count": 2071,
      "video": false,
      "vote_average": 8.28
    },
    {
      "poster_path": "/d4KNaTrltq6bpkFS01pYtyXa09m.jpg",
      "adult": false,
      "overview": "The story spans the years from 1945 to 1955 and chronicles the fictional Italian-American Corleone crime family. When organized crime family patriarch Vito Corleone barely survives an attempt on his life, his youngest son, Michael, steps in to take care of the would-be killers, launching a campaign of bloody revenge.",
      "release_date": "1972-03-15",
      "genre_ids": [
        18,
        80
      ],
      "id": 238,
      "original_title": "The Godfather",
      "original_language": "en",
      "title": "The Godfather",
      "backdrop_path": "/6xKCYgH16UuwEGAyroLU6p8HLIn.jpg",
      "popularity": 4.095919,
      "vote_count": 3581,
      "video": false,
      "vote_average": 8.26
    },
    {
      "poster_path": "/ynXoOxmDHNQ4UAy0oU6avW71HVW.jpg",
      "adult": false,
      "overview": "Spirited Away is an Oscar winning Japanese animated film about a ten year old girl who wanders away from her parents along a path that leads to a world ruled by strange and unusual monster-like animals. Her parents have been changed into pigs along with others inside a bathhouse full of these creatures. Will she ever see the world how it once was?",
      "release_date": "2001-07-20",
      "genre_ids": [
        14,
        12,
        16,
        10751
      ],
      "id": 129,
      "original_title": "千と千尋の神隠し",
      "original_language": "ja",
      "title": "Spirited Away",
      "backdrop_path": "/djgM2d3e42p9GFQObg6lwK2SVw2.jpg",
      "popularity": 3.815061,
      "vote_count": 2005,
      "video": false,
      "vote_average": 8.14
    },
    {
      "poster_path": "/nBNZadXqJSdt05SHLqgT0HuC5Gm.jpg",
      "adult": false,
      "overview": "Interstellar chronicles the adventures of a group of explorers who make use of a newly discovered wormhole to surpass the limitations on human space travel and conquer the vast distances involved in an interstellar voyage.",
      "release_date": "2014-11-05",
      "genre_ids": [
        12,
        18,
        878
      ],
      "id": 157336,
      "original_title": "Interstellar",
      "original_language": "en",
      "title": "Interstellar",
      "backdrop_path": "/xu9zaAevzQ5nnrsXN6JcahLnG4i.jpg",
      "popularity": 11.165431,
      "vote_count": 5619,
      "video": false,
      "vote_average": 8.11
    },
    {
      "poster_path": "/4mFsNQwbD0F237Tx7gAPotd0nbJ.jpg",
      "adult": false,
      "overview": "A true story of two men who should never have met - a quadriplegic aristocrat who was injured in a paragliding accident and a young man from the projects.",
      "release_date": "2011-11-02",
      "genre_ids": [
        18,
        35
      ],
      "id": 77338,
      "original_title": "Intouchables",
      "original_language": "fr",
      "title": "The Intouchables",
      "backdrop_path": "/ihWaJZCUIon2dXcosjQG2JHJAPN.jpg",
      "popularity": 2.888885,
      "vote_count": 2753,
      "video": false,
      "vote_average": 8.1
    },
    {
      "poster_path": "/tHbMIIF51rguMNSastqoQwR0sBs.jpg",
      "adult": false,
      "overview": "The continuing saga of the Corleone crime family tells the story of a young Vito Corleone growing up in Sicily and in 1910s New York; and follows Michael Corleone in the 1950s as he attempts to expand the family business into Las Vegas, Hollywood and Cuba",
      "release_date": "1974-12-20",
      "genre_ids": [
        18,
        80
      ],
      "id": 240,
      "original_title": "The Godfather: Part II",
      "original_language": "en",
      "title": "The Godfather: Part II",
      "backdrop_path": "/gLbBRyS7MBrmVUNce91Hmx9vzqI.jpg",
      "popularity": 3.280335,
      "vote_count": 1900,
      "video": false,
      "vote_average": 8.1
    },
    {
      "poster_path": "/yPisjyLweCl1tbgwgtzBCNCBle.jpg",
      "adult": false,
      "overview": "Told from the perspective of businessman Oskar Schindler who saved over a thousand Jewish lives from the Nazis while they worked as slaves in his factory. Schindler’s List is based on a true story, illustrated in black and white and controversially filmed in many original locations.",
      "release_date": "1993-11-29",
      "genre_ids": [
        18,
        36,
        10752
      ],
      "id": 424,
      "original_title": "Schindler's List",
      "original_language": "en",
      "title": "Schindler's List",
      "backdrop_path": "/rIpSszng8P0DL0TimSzZbpfnvh1.jpg",
      "popularity": 5.063639,
      "vote_count": 2318,
      "video": false,
      "vote_average": 8.07
    },
    {
      "poster_path": "/bwVhmPpydv8P7mWfrmL3XVw0MV5.jpg",
      "adult": false,
      "overview": "In the latter part of World War II, a boy and his sister, orphaned when their mother is killed in the firebombing of Tokyo, are left to survive on their own in what remains of civilian life in Japan. The plot follows this boy and his sister as they do their best to survive in the Japanese countryside, battling hunger, prejudice, and pride in their own quiet, personal battle.",
      "release_date": "1988-04-16",
      "genre_ids": [
        16,
        18,
        10751,
        10752
      ],
      "id": 12477,
      "original_title": "火垂るの墓",
      "original_language": "ja",
      "title": "Grave of the Fireflies",
      "backdrop_path": "/fCUIuG7y4YKC3hofZ8wsj7zhCpR.jpg",
      "popularity": 1.00085,
      "vote_count": 431,
      "video": false,
      "vote_average": 8.07
    },
    {
      "poster_path": "/eqFckcHuFCT1FrzLOAvXBb4jHwq.jpg",
      "adult": false,
      "overview": "Jack is a young boy of 5 years old who has lived all his life in one room. He believes everything within it are the only real things in the world. But what will happen when his Ma suddenly tells him that there are other things outside of Room?",
      "release_date": "2015-10-16",
      "genre_ids": [
        18,
        53
      ],
      "id": 264644,
      "original_title": "Room",
      "original_language": "en",
      "title": "Room",
      "backdrop_path": "/tBhp8MGaiL3BXpPCSl5xY397sGH.jpg",
      "popularity": 4.545041,
      "vote_count": 1191,
      "video": false,
      "vote_average": 8.06
    },
    {
      "poster_path": "/f7DImXDebOs148U4uPjI61iDvaK.jpg",
      "adult": false,
      "overview": "A touching story of an Italian book seller of Jewish ancestry who lives in his own little fairy tale. His creative and happy life would come to an abrupt halt when his entire family is deported to a concentration camp during World War II. While locked up he tries to convince his son that the whole thing is just a game.",
      "release_date": "1997-12-20",
      "genre_ids": [
        35,
        18
      ],
      "id": 637,
      "original_title": "La vita è bella",
      "original_language": "it",
      "title": "Life Is Beautiful",
      "backdrop_path": "/bORe0eI72D874TMawOOFvqWS6Xe.jpg",
      "popularity": 3.099833,
      "vote_count": 1607,
      "video": false,
      "vote_average": 8.06
    },
    {
      "poster_path": "/811DjJTon9gD6hZ8nCjSitaIXFQ.jpg",
      "adult": false,
      "overview": "A ticking-time-bomb insomniac and a slippery soap salesman channel primal male aggression into a shocking new form of therapy. Their concept catches on, with underground \"fight clubs\" forming in every town, until an eccentric gets in the way and ignites an out-of-control spiral toward oblivion.",
      "release_date": "1999-10-14",
      "genre_ids": [
        18
      ],
      "id": 550,
      "original_title": "Fight Club",
      "original_language": "en",
      "title": "Fight Club",
      "backdrop_path": "/8uO0gUM8aNqYLs1OsTBQiXu0fEv.jpg",
      "popularity": 6.418239,
      "vote_count": 5246,
      "video": false,
      "vote_average": 8.06
    },
    {
      "poster_path": "/1hRoyzDtpgMU7Dz4JF22RANzQO7.jpg",
      "adult": false,
      "overview": "Batman raises the stakes in his war on crime. With the help of Lt. Jim Gordon and District Attorney Harvey Dent, Batman sets out to dismantle the remaining criminal organizations that plague the streets. The partnership proves to be effective, but they soon find themselves prey to a reign of chaos unleashed by a rising criminal mastermind known to the terrified citizens of Gotham as the Joker.",
      "release_date": "2008-07-16",
      "genre_ids": [
        18,
        28,
        80,
        53
      ],
      "id": 155,
      "original_title": "The Dark Knight",
      "original_language": "en",
      "title": "The Dark Knight",
      "backdrop_path": "/nnMC0BM6XbjIIrT4miYmMtPGcQV.jpg",
      "popularity": 7.228685,
      "vote_count": 7761,
      "video": false,
      "vote_average": 8.05
    },
    {
      "poster_path": "/dM2w364MScsjFf8pfMbaWUcWrR.jpg",
      "adult": false,
      "overview": "A burger-loving hit man, his philosophical partner, a drug-addled gangster's moll and a washed-up boxer converge in this sprawling, comedic crime caper. Their adventures unfurl in three stories that ingeniously trip back and forth in time.",
      "release_date": "1994-10-14",
      "genre_ids": [
        53,
        80
      ],
      "id": 680,
      "original_title": "Pulp Fiction",
      "original_language": "en",
      "title": "Pulp Fiction",
      "backdrop_path": "/mte63qJaVnoxkkXbHkdFujBnBgd.jpg",
      "popularity": 6.213549,
      "vote_count": 4737,
      "video": false,
      "vote_average": 8.04
    },
    {
      "poster_path": "/gzlJkVfWV5VEG5xK25cvFGJgkDz.jpg",
      "adult": false,
      "overview": "Ashitaka, a prince of the disappearing Ainu tribe, is cursed by a demonized boar god and must journey to the west to find a cure. Along the way, he encounters San, a young human woman fighting to protect the forest, and Lady Eboshi, who is trying to destroy it. Ashitaka must find a way to bring balance to this conflict.",
      "release_date": "1997-07-12",
      "genre_ids": [
        12,
        14,
        16
      ],
      "id": 128,
      "original_title": "もののけ姫",
      "original_language": "ja",
      "title": "Princess Mononoke",
      "backdrop_path": "/dB2rATwfCbsPGfRLIoluBnKdVHb.jpg",
      "popularity": 2.985642,
      "vote_count": 957,
      "video": false,
      "vote_average": 8.03
    },
    {
      "poster_path": "/3TpMBcAYH4cxCw5WoRacWodMTCG.jpg",
      "adult": false,
      "overview": "An urban office worker finds that paper airplanes are instrumental in meeting a girl in ways he never expected.",
      "release_date": "2012-11-02",
      "genre_ids": [
        16,
        10751,
        10749
      ],
      "id": 140420,
      "original_title": "Paperman",
      "original_language": "en",
      "title": "Paperman",
      "backdrop_path": "/cqn1ynw78Wan37jzs1Ckm7va97G.jpg",
      "popularity": 1.883069,
      "vote_count": 455,
      "video": false,
      "vote_average": 8.03
    },
    {
      "poster_path": "/z4ROnCrL77ZMzT0MsNXY5j25wS2.jpg",
      "adult": false,
      "overview": "A man with a low IQ has accomplished great things in his life and been present during significant historic events - in each case, far exceeding what anyone imagined he could do. Yet, despite all the things he has attained, his one true love eludes him. 'Forrest Gump' is the story of a man who rose above his challenges, and who proved that determination, courage, and love are more important than ability.",
      "release_date": "1994-07-06",
      "genre_ids": [
        35,
        18,
        10749
      ],
      "id": 13,
      "original_title": "Forrest Gump",
      "original_language": "en",
      "title": "Forrest Gump",
      "backdrop_path": "/ctOEhQiFIHWkiaYp7b0ibSTe5IL.jpg",
      "popularity": 4.560334,
      "vote_count": 4292,
      "video": false,
      "vote_average": 8.02
    },
    {
      "poster_path": "/pwpGfTImTGifEGgLb3s6LRPd4I6.jpg",
      "adult": false,
      "overview": "Henry Hill is a small time gangster, who takes part in a robbery with Jimmy Conway and Tommy De Vito, two other gangsters who have set their sights a bit higher. His two partners kill off everyone else involved in the robbery, and slowly start to climb up through the hierarchy of the Mob. Henry, however, is badly affected by his partners success, but will he stoop low enough to bring about the downfall of Jimmy and Tommy?",
      "release_date": "1990-09-12",
      "genre_ids": [
        18,
        80
      ],
      "id": 769,
      "original_title": "Goodfellas",
      "original_language": "en",
      "title": "Goodfellas",
      "backdrop_path": "/xDEOxA01480uLTWuvQCw61VmDBt.jpg",
      "popularity": 3.715523,
      "vote_count": 1541,
      "video": false,
      "vote_average": 8.02
    },
    {
      "poster_path": "/aAmfIX3TT40zUHGcCKrlOZRKC7u.jpg",
      "adult": false,
      "overview": "Growing up can be a bumpy road, and it's no exception for Riley, who is uprooted from her Midwest life when her father starts a new job in San Francisco. Like all of us, Riley is guided by her emotions - Joy, Fear, Anger, Disgust and Sadness. The emotions live in Headquarters, the control center inside Riley's mind, where they help advise her through everyday life. As Riley and her emotions struggle to adjust to a new life in San Francisco, turmoil ensues in Headquarters. Although Joy, Riley's main and most important emotion, tries to keep things positive, the emotions conflict on how best to navigate a new city, house and school.",
      "release_date": "2015-06-09",
      "genre_ids": [
        35,
        16,
        10751
      ],
      "id": 150540,
      "original_title": "Inside Out",
      "original_language": "en",
      "title": "Inside Out",
      "backdrop_path": "/szytSpLAyBh3ULei3x663mAv5ZT.jpg",
      "popularity": 5.548669,
      "vote_count": 3454,
      "video": false,
      "vote_average": 8.02
    },
    {
      "poster_path": "/qcL1YfkCxfhsdO6sDDJ0PpzMF9n.jpg",
      "adult": false,
      "overview": "The defense and the prosecution have rested and the jury is filing into the jury room to decide if a young Spanish-American is guilty or innocent of murdering his father. What begins as an open and shut case soon becomes a mini-drama of each of the jurors' prejudices and preconceptions about the trial, the accused, and each other.",
      "release_date": "1957-03-25",
      "genre_ids": [
        18
      ],
      "id": 389,
      "original_title": "12 Angry Men",
      "original_language": "en",
      "title": "12 Angry Men",
      "backdrop_path": "/lH2Ga8OzjU1XlxJ73shOlPx6cRw.jpg",
      "popularity": 2.916259,
      "vote_count": 1141,
      "video": false,
      "vote_average": 8.01
    }
  ]
}